<svg xmlns="http://www.w3.org/2000/svg" width="48" height="48" viewBox="0 0 48 48">
    <g fill="#FF8D42" fill-rule="nonzero" stroke="#FF8D42" stroke-width=".3">
        <path d="M36.5 1a10.465 10.465 0 0 0-7.34 3H8.5C4.364 4 1 7.365 1 11.5 1 15.636 4.364 19 8.5 19h20.66c1.894 1.855 4.486 3 7.34 3C42.29 22 47 17.29 47 11.5S42.29 1 36.5 1zm-9.485 15H8.5A4.505 4.505 0 0 1 4 11.5C4 9.019 6.019 7 8.5 7h18.515A10.436 10.436 0 0 0 26 11.5c0 1.61.365 3.135 1.015 4.5zm9.485 3c-4.136 0-7.5-3.364-7.5-7.5C29 7.365 32.364 4 36.5 4c4.135 0 7.5 3.365 7.5 7.5 0 4.136-3.365 7.5-7.5 7.5zM39.5 29H18.84a10.465 10.465 0 0 0-7.34-3C5.71 26 1 30.71 1 36.5S5.71 47 11.5 47c2.854 0 5.446-1.145 7.34-3H39.5c4.136 0 7.5-3.364 7.5-7.5 0-4.135-3.364-7.5-7.5-7.5zm-28 15C7.365 44 4 40.636 4 36.5c0-4.135 3.365-7.5 7.5-7.5 4.136 0 7.5 3.365 7.5 7.5 0 4.136-3.365 7.5-7.5 7.5zm28-3H20.985A10.437 10.437 0 0 0 22 36.5c0-1.61-.365-3.135-1.015-4.5H39.5c2.481 0 4.5 2.019 4.5 4.5S41.98 41 39.5 41z"/>
    </g>
</svg>
