<svg xmlns="http://www.w3.org/2000/svg" width="14" height="16" viewBox="0 0 14 16">
    <path fill="#474A50" fill-rule="evenodd" d="M13.625 6c.104 0 .193.036.266.11.073.072.109.16.109.265V14.5c0 .417-.146.77-.438 1.062A1.447 1.447 0 0 1 12.5 16h-11c-.417 0-.77-.146-1.063-.438A1.447 1.447 0 0 1 0 14.5V6.375c0-.104.036-.193.11-.266A.362.362 0 0 1 .374 6h13.25zM14 4.625a.362.362 0 0 1-.11.266.362.362 0 0 1-.265.109H.375a.362.362 0 0 1-.266-.11A.362.362 0 0 1 0 4.626V3.5c0-.417.146-.77.437-1.063A1.447 1.447 0 0 1 1.5 2H3V.375c0-.104.036-.193.11-.266A.362.362 0 0 1 3.374 0h1.25c.104 0 .193.036.266.11.073.072.109.16.109.265V2h4V.375c0-.104.036-.193.11-.266A.362.362 0 0 1 9.374 0h1.25c.104 0 .193.036.266.11.073.072.109.16.109.265V2h1.5c.417 0 .77.146 1.062.437.292.292.438.646.438 1.063v1.125z"/>
</svg>
