<svg xmlns="http://www.w3.org/2000/svg" width="40" height="48" viewBox="0 0 40 48">
    <path fill="#FF8D42" fill-rule="nonzero" d="M38.872 17.514c-1.209-1.358-2.331 0-2.331 0L17.031 39.53c-3.022 3.394-6.39 4.849-9.238 3.976-2.072-.679-3.712-2.522-4.317-5.043-.777-3.395.346-7.177 3.28-10.475L27.305 5.003c1.899-2.134 4.489-1.358 6.043.388 1.726 1.94 1.985 4.461.172 6.498L12.8 35.165c-2.504 2.813-4.317.776-1.813-2.036l13.381-15.033c.605-.679.605-1.94 0-2.619-.604-.678-1.726-.678-2.33 0L8.655 30.51c-5.611 6.304.95 13.48 6.475 7.274l20.72-23.276c3.107-3.492 2.762-8.438-.173-11.736C33-.234 28.34-1.398 24.973 2.385L4.426 25.37C.714 29.54-.754 34.68.368 39.433c.864 3.782 3.367 6.691 6.648 7.661.777.291 1.554.291 2.417.291 3.28 0 6.82-1.745 9.928-5.237l19.51-22.015s1.21-1.261 0-2.619z"/>
</svg>
