<svg xmlns="http://www.w3.org/2000/svg" width="16" height="16" viewBox="0 0 16 16">
    <path fill="#FF8D42" fill-rule="evenodd" d="M15.406.781c.188.021.334.104.438.25A.792.792 0 0 1 16 1.5c0 2.625-.656 5.063-1.969 7.313a14.57 14.57 0 0 1-5.219 5.218C6.562 15.344 4.125 16 1.5 16a.792.792 0 0 1-.469-.156.593.593 0 0 1-.25-.438l-.75-3.25a.705.705 0 0 1 .063-.5.673.673 0 0 1 .375-.343l3.5-1.5a.677.677 0 0 1 .453-.032.93.93 0 0 1 .422.25l1.531 1.875a10.985 10.985 0 0 0 3.266-2.281 11.48 11.48 0 0 0 2.265-3.25l-1.875-1.531a.93.93 0 0 1-.25-.422.677.677 0 0 1 .031-.453l1.5-3.5a.673.673 0 0 1 .344-.375.705.705 0 0 1 .5-.063l3.25.75z"/>
</svg>
