<svg xmlns="http://www.w3.org/2000/svg" width="12" height="12" viewBox="0 0 12 12">
    <path fill="#474A50" fill-rule="evenodd" d="M11.554.579c.141.015.25.078.329.187.078.11.117.227.117.352 0 1.97-.493 3.8-1.478 5.488a10.934 10.934 0 0 1-3.916 3.916A10.703 10.703 0 0 1 1.118 12a.594.594 0 0 1-.352-.117.445.445 0 0 1-.187-.329L.016 9.115a.53.53 0 0 1 .047-.375.505.505 0 0 1 .281-.258l2.627-1.126a.508.508 0 0 1 .34-.023.699.699 0 0 1 .316.188l1.15 1.407a8.244 8.244 0 0 0 2.45-1.712 8.616 8.616 0 0 0 1.7-2.44L7.522 3.628a.699.699 0 0 1-.188-.316.508.508 0 0 1 .023-.34L8.482.344A.505.505 0 0 1 8.74.063a.53.53 0 0 1 .375-.047l2.44.563z"/>
</svg>
