<svg xmlns="http://www.w3.org/2000/svg" width="67" height="62" viewBox="0 0 67 62">
    <path fill="#474A50" fill-rule="evenodd" d="M.067 51.837h1.63l4.834 7.066v-7.066h1.486v9.929H6.66l-5.106-7.34v7.34H.067v-9.929zm9.088 0h4.873V53.1H10.64v3.071h3.387v1.276H10.64v3.058h3.387v1.262H9.155v-9.929zm14.762 9.929l-1.431-.002-1.827-6.361-1.788 6.36-1.443.003-2.818-9.929h1.538l2.018 7.016 1.989-7.016h1.034l2.002 7.018 2.005-7.018h1.538l-2.817 9.929zm14.645 0l-1.43-.002-1.827-6.361-1.788 6.36-1.444.003-2.818-9.929h1.538l2.019 7.016 1.989-7.016h1.034l2.001 7.018 2.006-7.018h1.538l-2.818 9.929zm4.032-4.971c0 1.006.353 1.865 1.06 2.576a3.476 3.476 0 0 0 2.56 1.067c.99 0 1.84-.355 2.546-1.067a3.522 3.522 0 0 0 1.06-2.576c0-.998-.354-1.852-1.06-2.563-.707-.712-1.556-1.067-2.547-1.067-1 0-1.852.355-2.56 1.067a3.507 3.507 0 0 0-1.059 2.563zm3.62-5.18c1.421 0 2.636.508 3.645 1.523 1.008 1.015 1.512 2.234 1.512 3.657 0 1.431-.502 2.657-1.506 3.676C48.861 61.491 47.644 62 46.213 62c-1.422 0-2.637-.507-3.645-1.522-1.008-1.015-1.512-2.243-1.512-3.683 0-1.423.504-2.642 1.512-3.657 1.008-1.015 2.223-1.522 3.645-1.522zm9.244 5.29c.517 0 .961-.182 1.332-.546.37-.365.556-.812.556-1.34 0-.513-.186-.96-.556-1.341a1.79 1.79 0 0 0-1.332-.573h-1.745v3.8h1.745zm.155-5.062c.88 0 1.627.31 2.243.93a3.07 3.07 0 0 1 .924 2.245c0 .781-.239 1.449-.717 2.004-.478.555-1.105.894-1.88 1.015l2.684 3.728-1.896.007-3.258-4.529v4.529h-1.486v-9.929h3.386zm9.474-.006H67l-3.84 4.854 3.788 5.075h-1.952L61.3 56.82v4.945h-1.487v-9.929H61.3v4.787l3.787-4.787zM0 0h3.401v.027L3.413.02c9.275 16.173 18.604 32.377 27.802 48.415h-3.963L3.402 6.848v41.587H0V0zm28.807 24.529V0h3.402v30.46l-3.402-5.931zM66.954 0c-.008 16.05-.06 32.318-.06 48.435h-4.16L38.865 6.818v41.617h-3.983L7.104 0h3.927l24.433 42.601L35.467 0h3.416l24.61 42.911V0h3.461z"/>
</svg>
